{
  "settings": {
    "number_of_replicas": 1,
    "number_of_shards": 4
  },
  "mappings": {
    "dynamic": false,
    "properties": {
      "@context": {
        "type": "keyword",
        "index": false
      },
      "broadMatch": {
        "properties": {
          "id": {
            "type": "keyword"
          },
          "label": {
            "type": "keyword"
          }
        }
      },
      "broaderTermGeneral": {
        "properties": {
          "id": {
            "type": "keyword"
          },
          "label": {
            "type": "keyword"
          }
        }
      },
      "broaderTermGeneric": {
        "properties": {
          "id": {
            "type": "keyword"
          },
          "label": {
            "type": "keyword"
          }
        }
      },
      "broaderTermInstantial": {
        "properties": {
          "id": {
            "type": "keyword"
          },
          "label": {
            "type": "keyword"
          }
        }
      },
      "broaderTermPartitive": {
        "properties": {
          "id": {
            "type": "keyword"
          },
          "label": {
            "type": "keyword"
          }
        }
      },
      "complexSeeReferenceSubject": {
        "properties": {
          "id": {
            "type": "keyword"
          },
          "label": {
            "type": "keyword"
          }
        }
      },
      "definition": {
        "type": "keyword"
      },
      "describedBy": {
        "properties": {
          "dateModified": {
            "type": "date"
          },
          "id": {
            "type": "keyword"
          },
          "license": {
            "properties": {
              "id": {
                "type": "keyword"
              },
              "label": {
                "type": "keyword",
                "index": false
              }
            }
          }
        }
      },
      "exactMatch": {
        "properties": {
          "id": {
            "type": "keyword"
          },
          "label": {
            "type": "keyword"
          }
        }
      },
      "geographicAreaCode": {
        "properties": {
          "id": {
            "type": "keyword"
          },
          "label": {
            "type": "keyword"
          }
        }
      },
      "gndIdentifier": {
        "type": "keyword"
      },
      "gndSubjectCategory": {
        "properties": {
          "id": {
            "type": "keyword"
          },
          "label": {
            "type": "keyword"
          }
        }
      },
      "id": {
        "type": "keyword"
      },
      "narrowMatch": {
        "properties": {
          "id": {
            "type": "keyword"
          },
          "label": {
            "type": "keyword"
          }
        }
      },
      "oldAuthorityNumber": {
        "type": "keyword"
      },
      "preferredName": {
        "type": "text"
      },
      "relatedDdcWithDegreeOfDeterminacy1": {
        "properties": {
          "id": {
            "type": "keyword"
          },
          "label": {
            "type": "keyword"
          }
        }
      },
      "relatedDdcWithDegreeOfDeterminacy2": {
        "properties": {
          "id": {
            "type": "keyword"
          },
          "label": {
            "type": "keyword"
          }
        }
      },
      "relatedDdcWithDegreeOfDeterminacy3": {
        "properties": {
          "id": {
            "type": "keyword"
          },
          "label": {
            "type": "keyword"
          }
        }
      },
      "relatedDdcWithDegreeOfDeterminacy4": {
        "properties": {
          "id": {
            "type": "keyword"
          },
          "label": {
            "type": "keyword"
          }
        }
      },
      "relatedMatch": {
        "properties": {
          "id": {
            "type": "keyword"
          },
          "label": {
            "type": "keyword"
          }
        }
      },
      "relatedSubjectHeading": {
        "properties": {
          "id": {
            "type": "keyword"
          },
          "label": {
            "type": "keyword"
          }
        }
      },
      "relatedTerm": {
        "properties": {
          "id": {
            "type": "keyword"
          },
          "label": {
            "type": "keyword"
          }
        }
      },
      "sameAs": {
        "properties": {
          "collection": {
            "type": "object",
            "enabled": false
          },
          "id": {
            "type": "keyword"
          }
        }
      },
      "succeedingSubjectHeading": {
        "properties": {
          "id": {
            "type": "keyword"
          },
          "label": {
            "type": "keyword"
          }
        }
      },
      "precedingSubject": {
        "properties": {
          "id": {
            "type": "keyword"
          },
          "label": {
            "type": "keyword"
          }
        }
      },
      "type": {
        "type": "keyword"
      },
      "variantName": {
        "type": "keyword"
      }
    }
  }
}